…
</details>

<img src="man/figures/README-unnamed-chunk-7-1.png" width="100%" />

# Supported products

    #> # A tibble: 32 × 3
    #>    Function              Description                              `BKG products`
    #>    <chr>                 <chr>                                    <chr>         
    #>  1 `bkg_admin`           Administrative boundaries at different … [`vg250`](htt…
    #>  2 `bkg_admin_hierarchy` Administrative boundaries containing de… [`vz250`](htt…
    #>  3 `bkg_admin_highres`   Administrative boundaries at a signific… [`vg25`](http…
    #>  4 `bkg_ags`             Geographical names associated with offi… [`wfs_gnde`](…
    #>  5 `bkg_airports`        International, regional, and special ai… [`wfs_poi_ope…
    #>  6 `bkg_amr`             Labor market regions (Arbeitsmarktregio… [`ge250`](htt…
    #>  7 `bkg_area_codes`      Area code regions (Vorwahlgebiete)       [`wfs_gnde`](…
    #>  8 `bkg_ars`             Geographical names associated with offi… [`wfs_gnde`](…
    #>  9 `bkg_authorities`     Regions of administrative responsibilit… [`wfs_bzb_ope…
    #> 10 `bkg_bkr`             Lignite extraction regions (Braunkohler… [`ge250`](htt…
    #> # ℹ 22 more rows
…
