…
## Examples

``` r
# Get only trauma centers specializing on orthopedics
bkg_trauma_centers(abteilung %LIKE% "%orthopäd%")
#> Simple feature collection with 21 features and 16 fields
#> Geometry type: POINT
#> Dimension:     XY
#> Bounding box:  xmin: 4062805 ymin: 2708345 xmax: 4488060 ymax: 3396631
#> Projected CRS: ETRS89-extended / LAEA Europe
#> # A tibble: 21 × 17
#>    poi_id     tz_nummer name  strasse hn    plz   ort   netzwerk abteilung typ  
#>    <chr>      <chr>     <chr> <chr>   <chr> <chr> <chr> <chr>    <chr>     <chr>
#>  1 DEBKGPOI0… TZ-00268  Städ… Moltke… 90    76133 Karl… TraumaN… Klinik f… ÜTZ  
#>  2 DEBKGPOI0… TZ-00181  Klin… Auenst… 6     82467 Garm… TraumaN… Abteilun… RTZ  
#>  3 DEBKGPOI0… TZ-00701  Kran… Simons… 55    91207 Lauf… TraumaN… Unfallch… LTZ  
#>  4 DEBKGPOI0… TZ-00368  HELI… Steine… 5     81241 Münc… TraumaN… Klinik f… RTZ  
#>  5 DEBKGPOI0… TZ-00417  Sana… Langer… 12    91257 Pegn… TraumaN… Unfallch… LTZ  
#>  6 DEBKGPOI0… TZ-00456  Klin… Ansbac… 131   91541 Roth… TraumaN… Unfall- … LTZ  
#>  7 DEBKGPOI0… TZ-00675  Askl… Tangst… 400   22417 Hamb… TraumaN… Unfall- … ÜTZ  
#>  8 DEBKGPOI0… TZ-00253  Krei… Lieben… 1     34369 Hofg… TraumaN… Chirurgi… LTZ  
#>  9 DEBKGPOI0… TZ-00271  Elis… Weinbe… 7     34117 Kass… TraumaN… Abteilun… LTZ  
#> 10 DEBKGPOI0… TZ-00314  St.V… Auf de… NA    65549 Limb… TraumaN… Unfall- … RTZ  
#> # ℹ 11 more rows
#> # ℹ 7 more variables: ars <chr>, gemeinde <chr>, verwaltung <chr>, kreis <chr>,
#> #   regierungs <chr>, bundesland <chr>, geometry <POINT [m]>

# Get only local trauma centers
bkg_trauma_centers(typ == "LTZ")
#> Simple feature collection with 284 features and 16 fields
#> Geometry type: POINT
#> Dimension:     XY
#> Bounding box:  xmin: 4044367 ymin: 2724853 xmax: 4659794 ymax: 3486644
#> Projected CRS: ETRS89-extended / LAEA Europe
#> # A tibble: 284 × 17
#>    poi_id     tz_nummer name  strasse hn    plz   ort   netzwerk abteilung typ  
#>    <chr>      <chr>     <chr> <chr>   <chr> <chr> <chr> <chr>    <chr>     <chr>
#>  1 DEBKGPOI0… TZ-00039  Zoll… Tübing… 30    72336 Bali… TraumaN… Klinik f… LTZ  
#>  2 DEBKGPOI0… TZ-00619  Krei… Eduard… 6     75365 Calw  TraumaN… Klinik f… LTZ  
#>  3 DEBKGPOI0… TZ-00621  Land… Garten… 21    74564 Crai… TraumaN… Orthopäd… LTZ  
#>  4 DEBKGPOI0… TZ-00708  Kran… Rutesh… 50    71229 Leon… TraumaN… Klinik f… LTZ  
#>  5 DEBKGPOI0… TZ-00717  Ther… Basser… 1     68165 Mann… TraumaN… Unfallch… LTZ  
#>  6 DEBKGPOI0… TZ-00357  Neck… Knopfw… 1     74821 Mosb… TraumaN… Klinik f… LTZ  
#>  7 DEBKGPOI0… TZ-00358  RKH … Herman… 34    75417 Mühl… TraumaN… Sektion … LTZ  
#>  8 DEBKGPOI0… TZ-00382  Klin… Röntge… 20    72202 Nago… TraumaN… Klinik f… LTZ  
#>  9 DEBKGPOI0… TZ-00733  medi… Hedelf… 166   73760 Ostf… TraumaN… Klinik f… LTZ  
#> 10 DEBKGPOI0… TZ-00747  HELI… Kranke… 30    78628 Rott… TraumaN… Unfallch… LTZ  
#> # ℹ 274 more rows
#> # ℹ 7 more variables: ars <chr>, gemeinde <chr>, verwaltung <chr>, kreis <chr>,
#> #   regierungs <chr>, bundesland <chr>, geometry <POINT [m]>
…
