Digital landscape model (DLM) — bkg_dlm • ffm
…
    Examples

# Retrieve all train tracks in Leipzig
library(sf)
lzg <- st_sfc(st_point(c(12.37475, 51.340333)), crs = 4326)
lzg <- st_buffer(st_transform(lzg, 3035), dist = 10000, endCapStyle = "SQUARE")

tracks <- bkg_dlm("Bahnstrecke", shape = "line", poly = lzg)
tracks
#> Simple feature collection with 167 features and 19 fields
#> Geometry type: MULTILINESTRING
#> Dimension:     XY
#> Bounding box:  xmin: 4473996 ymin: 3122064 xmax: 4502816 ymax: 3151592
#> Projected CRS: ETRS89-extended / LAEA Europe
#> # A tibble: 167 × 20
#>    id    land  modellart objart objart_txt objid hdu_x beginn              ende 
#>    <chr> <chr> <chr>     <chr>  <chr>      <chr> <int> <dttm>              <chr>
#>  1 obja… DE    DLM250    42014  AX_Bahnst… DEBK…     0 2024-12-31 08:00:00 NA   
#>  2 obja… DE    DLM250    42014  AX_Bahnst… DEBK…     1 2024-12-31 08:00:00 NA   
#>  3 obja… DE    DLM250    42014  AX_Bahnst… DEBK…     1 2024-12-31 08:00:00 NA   
#>  4 obja… DE    DLM250    42014  AX_Bahnst… DEBK…     1 2024-12-31 08:00:00 NA   
#>  5 obja… DE    DLM250    42014  AX_Bahnst… DEBK…     0 2024-12-31 08:00:00 NA   
#>  6 obja… DE    DLM250    42014  AX_Bahnst… DEBK…     0 2024-12-31 08:00:00 NA   
#>  7 obja… DE    DLM250    42014  AX_Bahnst… DEBK…     0 2024-12-31 08:00:00 NA   
#>  8 obja… DE    DLM250    42014  AX_Bahnst… DEBK…     0 2024-12-31 08:00:00 NA   
#>  9 obja… DE    DLM250    42014  AX_Bahnst… DEBK…     0 2024-12-31 08:00:00 NA   
#> 10 obja… DE    DLM250    42014  AX_Bahnst… DEBK…     1 2024-12-31 08:00:00 NA   
#> # ℹ 157 more rows
#> # ℹ 11 more variables: bkt <chr>, elk <chr>, gls <chr>, nam <chr>, nrb <chr>,
#> #   spw <chr>, vkd <chr>, znm <chr>, zus <chr>, bemerkung <chr>,
#> #   geometry <MULTILINESTRING [m]>
…
# Filter all tracks that are not rail cargo
bkg_dlm("Bahnstrecke", shape = "line", poly = lzg, bkt == "1102")
#> Simple feature collection with 30 features and 19 fields
#> Geometry type: MULTILINESTRING
#> Dimension:     XY
#> Bounding box:  xmin: 4476343 ymin: 3135590 xmax: 4491708 ymax: 3147484
#> Projected CRS: ETRS89-extended / LAEA Europe
#> # A tibble: 30 × 20
#>    id    land  modellart objart objart_txt objid hdu_x beginn              ende 
#>    <chr> <chr> <chr>     <chr>  <chr>      <chr> <int> <dttm>              <chr>
#>  1 obja… DE    DLM250    42014  AX_Bahnst… DEBK…     0 2024-12-31 08:00:00 NA   
#>  2 obja… DE    DLM250    42014  AX_Bahnst… DEBK…     1 2024-12-31 08:00:00 NA   
#>  3 obja… DE    DLM250    42014  AX_Bahnst… DEBK…     0 2024-12-31 08:00:00 NA   
#>  4 obja… DE    DLM250    42014  AX_Bahnst… DEBK…     0 2024-12-31 08:00:00 NA   
#>  5 obja… DE    DLM250    42014  AX_Bahnst… DEBK…     0 2024-12-31 08:00:00 NA   
#>  6 obja… DE    DLM250    42014  AX_Bahnst… DEBK…     0 2024-12-31 08:00:00 NA   
#>  7 obja… DE    DLM250    42014  AX_Bahnst… DEBK…     0 2024-12-31 08:00:00 NA   
#>  8 obja… DE    DLM250    42014  AX_Bahnst… DEBK…     0 2024-12-31 08:00:00 NA   
#>  9 obja… DE    DLM250    42014  AX_Bahnst… DEBK…     0 2024-12-31 08:00:00 NA   
#> 10 obja… DE    DLM250    42014  AX_Bahnst… DEBK…     1 2024-12-31 08:00:00 NA   
#> # ℹ 20 more rows
#> # ℹ 11 more variables: bkt <chr>, elk <chr>, gls <chr>, nam <chr>, nrb <chr>,
#> #   spw <chr>, vkd <chr>, znm <chr>, zus <chr>, bemerkung <chr>,
#> #   geometry <MULTILINESTRING [m]>

# Directly providing the identifier is faster
bkg_dlm("42014", shape = "line", poly = lzg)
#> Simple feature collection with 167 features and 19 fields
#> Geometry type: MULTILINESTRING
#> Dimension:     XY
#> Bounding box:  xmin: 4473996 ymin: 3122064 xmax: 4502816 ymax: 3151592
#> Projected CRS: ETRS89-extended / LAEA Europe
#> # A tibble: 167 × 20
#>    id    land  modellart objart objart_txt objid hdu_x beginn              ende 
#>    <chr> <chr> <chr>     <chr>  <chr>      <chr> <int> <dttm>              <chr>
#>  1 obja… DE    DLM250    42014  AX_Bahnst… DEBK…     0 2024-12-31 08:00:00 NA   
#>  2 obja… DE    DLM250    42014  AX_Bahnst… DEBK…     1 2024-12-31 08:00:00 NA   
#>  3 obja… DE    DLM250    42014  AX_Bahnst… DEBK…     1 2024-12-31 08:00:00 NA   
#>  4 obja… DE    DLM250    42014  AX_Bahnst… DEBK…     1 2024-12-31 08:00:00 NA   
#>  5 obja… DE    DLM250    42014  AX_Bahnst… DEBK…     0 2024-12-31 08:00:00 NA   
#>  6 obja… DE    DLM250    42014  AX_Bahnst… DEBK…     0 2024-12-31 08:00:00 NA   
#>  7 obja… DE    DLM250    42014  AX_Bahnst… DEBK…     0 2024-12-31 08:00:00 NA   
#>  8 obja… DE    DLM250    42014  AX_Bahnst… DEBK…     0 2024-12-31 08:00:00 NA   
#>  9 obja… DE    DLM250    42014  AX_Bahnst… DEBK…     0 2024-12-31 08:00:00 NA   
#> 10 obja… DE    DLM250    42014  AX_Bahnst… DEBK…     1 2024-12-31 08:00:00 NA   
#> # ℹ 157 more rows
#> # ℹ 11 more variables: bkt <chr>, elk <chr>, gls <chr>, nam <chr>, nrb <chr>,
#> #   spw <chr>, vkd <chr>, znm <chr>, zus <chr>, bemerkung <chr>,
#> #   geometry <MULTILINESTRING [m]>
…
