NUTS regions — bkg_nuts • ffm
…
# Download the latest NUTS district data
bkg_nuts(level = "3")
#> Simple feature collection with 428 features and 4 fields
#> Geometry type: MULTIPOLYGON
#> Dimension:     XY
#> Bounding box:  xmin: 280371.1 ymin: 5235856 xmax: 921292.4 ymax: 6101444
#> Projected CRS: ETRS89 / UTM zone 32N
#> # A tibble: 428 × 5
#>       GF NUTS_LEVEL NUTS_CODE NUTS_NAME                                 geometry
#>    <int>      <int> <chr>     <chr>                           <MULTIPOLYGON [m]>
#>  1     4          3 DE111     Stuttgart, Stadtkreis (((516514.1 5412585, 516501…
#>  2     4          3 DE112     Böblingen             (((507605.3 5393882, 507674…
#>  3     4          3 DE113     Esslingen             (((530167.9 5376192, 529989…
#>  4     4          3 DE114     Göppingen             (((546693.5 5376179, 546296…
#>  5     4          3 DE115     Ludwigsburg           (((525746.8 5426306, 525785…
#>  6     4          3 DE116     Rems-Murr-Kreis       (((536207.7 5401707, 536137…
#>  7     4          3 DE117     Heilbronn, Stadtkreis (((508553.4 5450760, 508678…
#>  8     4          3 DE118     Heilbronn, Landkreis  (((525039.4 5446468, 525384…
#>  9     4          3 DE119     Hohenlohekreis        (((560682.9 5459435, 560710…
#> 10     4          3 DE11A     Schwäbisch Hall       (((585283 5434640, 585236.5…
#> # ℹ 418 more rows
…
