…
# Get only rooftop heliports
bkg_heliports(lage == "D")
#> Simple feature collection with 197 features and 19 fields
#> Geometry type: POINT
#> Dimension:     XY
#> Bounding box:  xmin: 4049323 ymin: 2708512 xmax: 4668344 ymax: 3520701
#> Projected CRS: ETRS89-extended / LAEA Europe
#> # A tibble: 197 × 20
#>    code   name_bkg    name_dfs airport_pk befestigun kennzeich lage  typ   typ2 
#>    <chr>  <chr>       <chr>    <chr>      <chr>      <chr>     <chr> <chr> <chr>
#>  1 LR001  BG Kliniku… Berlin … NA         befestigt  gekennze… D     HH    HLRS 
#>  2 ED1574 Universitä… Würzburg 7266       befestigt  gekennze… D     HH    NA   
#>  3 ED1577 Helios Kli… Krefeld… 7269       befestigt  gekennze… D     HH    NA   
#>  4 ED1582 Herz- und … BAD OEY… 7274       befestigt  gekennze… D     HH    NA   
#>  5 ED1588 Klinikum B… Bremerh… 7281       befestigt  gekennze… D     HH    NA   
#>  6 ED1590 Universitä… Düsseld… 7284       befestigt  gekennze… D     HH    NA   
#>  7 ED1596 BG Unfallk… Frankfu… 7290       befestigt  gekennze… D     HH    NA   
#>  8 ED1597 Klinikum F… Fulda K… 7291       befestigt  gekennze… D     HH    HLRS 
#>  9 ED1598 Klinikum G… GARMISC… 7292       befestigt  gekennze… D     HH    NA   
#> 10 ED1604 Medizinisc… HANNOVE… 7298       befestigt  gekennze… D     HH    HLRS 
#> # ℹ 187 more rows
#> # ℹ 11 more variables: betreiber <chr>, helikopter <chr>, status <chr>,
#> #   quelle <chr>, ars <chr>, gemeinde <chr>, verwaltung <chr>, kreis <chr>,
#> #   regierungs <chr>, bundesland <chr>, geometry <POINT [m]>
```
