Corine Land Cover — bkg_clc • ffm
…
# Get all coastal wetlands
bkg_clc(clc18 %LIKE% "42%")
#> Simple feature collection with 404 features and 3 fields
#> Geometry type: POLYGON
#> Dimension:     XY
#> Bounding box:  xmin: 4096873 ymin: 3350867 xmax: 4498721 ymax: 3550677
#> Projected CRS: ETRS89-extended / LAEA Europe
#> # A tibble: 404 × 4
#>    clc18 shape_length shape_area                                        geometry
#>    <chr>        <dbl>      <dbl>                                   <POLYGON [m]>
#>  1 423          5495.    488298. ((4190905 3408370, 4190944 3408290, 4190946 34…
#>  2 421         23980.   3749087. ((4183414 3403081, 4183416 3403080, 4183423 34…
#>  3 421         14760.   1397288. ((4180799 3411338, 4180899 3411327, 4180909 34…
#>  4 423          8598.    864323. ((4190000 3410353, 4190147 3410179, 4190156 34…
#>  5 423          1575.    164467. ((4189121 3410873, 4189125 3410872, 4189128 34…
#>  6 423         24185.   2903870. ((4182567 3411872, 4182731 3411842, 4182734 34…
#>  7 423          5625.    184655. ((4133436 3362190, 4133441 3362189, 4133444 33…
#>  8 421          2947.    156729. ((4138081 3360312, 4138079 3360311, 4138074 33…
#>  9 421          4382.    438589. ((4137427 3361663, 4137433 3361663, 4137437 33…
#> 10 423          3338.    201369. ((4129907 3359668, 4129904 3359666, 4129899 33…
#> # ℹ 394 more rows
…
