Administrative hierarchy — bkg_admin_hierarchy • ffm
…
    An sf tibble with multipolygon geometries similar to the output
of bkg_admin(level = "gem"). The tibble additionally contains
columns NUTS*_CODE and NUTS*_NAME giving the identifiers and
names of the administrative areas the municipalities belong to.

    Examples

bkg_admin_hierarchy()
#> Simple feature collection with 11126 features and 28 fields
#> Geometry type: MULTIPOLYGON
#> Dimension:     XY
#> Bounding box:  xmin: 280371.1 ymin: 5235856 xmax: 921292.4 ymax: 6101487
#> Projected CRS: ETRS89 / UTM zone 32N
#> # A tibble: 11,126 × 29
#>       GF ARS_G AGS_G GEN_G BEZ_G IBZ_G ARS_V GEN_V BEZ_V IBZ_V ARS_K GEN_K BEZ_K
#>    <int> <chr> <chr> <chr> <chr> <int> <chr> <chr> <chr> <int> <chr> <chr> <chr>
#>  1     4 0100… 0100… Flen… Stadt    60 0100… Flen… Amts…    80 01001 Flen… Krei…
#>  2     4 0100… 0100… Kiel  Stadt    60 0100… Kiel  Amts…    80 01002 Kiel  Krei…
#>  3     4 0100… 0100… Lübe… Stadt    60 0100… Lübe… Amts…    80 01003 Lübe… Krei…
#>  4     4 0100… 0100… Neum… Stadt    60 0100… Neum… Amts…    80 01004 Neum… Krei…
#>  5     4 0105… 0105… Brun… Stadt    61 0105… Brun… Amts…    85 01051 Dith… Kreis
#>  6     4 0105… 0105… Heide Stadt    61 0105… Heide Amts…    85 01051 Dith… Kreis
#>  7     4 0105… 0105… Aver… Geme…    64 0105… Burg… Amt      50 01051 Dith… Kreis
#>  8     4 0105… 0105… Bric… Geme…    64 0105… Burg… Amt      50 01051 Dith… Kreis
#>  9     4 0105… 0105… Buch… Geme…    64 0105… Burg… Amt      50 01051 Dith… Kreis
#> 10     4 0105… 0105… Burg… Geme…    64 0105… Burg… Amt      50 01051 Dith… Kreis
#> # ℹ 11,116 more rows
#> # ℹ 16 more variables: IBZ_K <int>, ARS_R <chr>, GEN_R <chr>, BEZ_R <chr>,
#> #   IBZ_R <int>, ARS_L <chr>, GEN_L <chr>, BEZ_L <chr>, IBZ_L <int>,
#> #   NUTS3_CODE <chr>, NUTS3_NAME <chr>, NUTS2_CODE <chr>, NUTS2_NAME <chr>,
#> #   NUTS1_CODE <chr>, NUTS1_NAME <chr>, geometry <MULTIPOLYGON [m]>
…
