…
Datasets:
[`admin_data`](https://jslth.github.io/ffm/reference/admin_data.md),
[`nuts_data`](https://jslth.github.io/ffm/reference/nuts_data.md)

## Examples

``` r
# You can use R-like operators to query the WFS
bkg_admin(ags %LIKE% "05%") # districts in NRW
#> Simple feature collection with 53 features and 26 fields
#> Geometry type: MULTIPOLYGON
#> Dimension:     XY
#> Bounding box:  xmin: 4031313 ymin: 3029642 xmax: 4283898 ymax: 3269981
#> Projected CRS: ETRS89-extended / LAEA Europe
#> # A tibble: 53 × 27
#>    objid      beginn       ade    gf   bsg lkz   ars   ags   sdv_ars gen   bez  
#>    <chr>      <date>     <int> <int> <int> <chr> <chr> <chr> <chr>   <chr> <chr>
#>  1 DEBKGVG20… 2025-01-03     4     4     1 NW    05111 05111 051110… Düss… Krei…
#>  2 DEBKGVG20… 2025-01-03     4     4     1 NW    05112 05112 051120… Duis… Krei…
#>  3 DEBKGVG20… 2025-01-03     4     4     1 NW    05113 05113 051130… Essen Krei…
#>  4 DEBKGVG20… 2025-01-03     4     4     1 NW    05114 05114 051140… Kref… Krei…
#>  5 DEBKGVG20… 2020-03-09     4     4     1 NW    05116 05116 051160… Mönc… Krei…
#>  6 DEBKGVG20… 2025-01-03     4     4     1 NW    05117 05117 051170… Mülh… Krei…
#>  7 DEBKGVG20… 2025-01-03     4     4     1 NW    05119 05119 051190… Ober… Krei…
#>  8 DEBKGVG20… 2025-01-03     4     4     1 NW    05120 05120 051200… Rems… Krei…
#>  9 DEBKGVG20… 2020-11-17     4     4     1 NW    05122 05122 051220… Soli… Krei…
#> 10 DEBKGVG20… 2025-04-11     4     4     1 NW    05124 05124 051240… Wupp… Krei…
#> # ℹ 43 more rows
#> # ℹ 16 more variables: ibz <int>, bem <chr>, nbd <chr>, sn_l <chr>, sn_r <chr>,
#> #   sn_k <chr>, sn_v1 <chr>, sn_v2 <chr>, sn_g <chr>, fk_s3 <chr>, nuts <chr>,
#> #   ars_0 <chr>, ags_0 <chr>, wsk <date>, dlm_id <chr>,
#> #   geometry <MULTIPOLYGON [m]>
bkg_admin(sn_l == "05") # does the same thing
#> Simple feature collection with 53 features and 26 fields
#> Geometry type: MULTIPOLYGON
#> Dimension:     XY
#> Bounding box:  xmin: 4031313 ymin: 3029642 xmax: 4283898 ymax: 3269981
#> Projected CRS: ETRS89-extended / LAEA Europe
#> # A tibble: 53 × 27
#>    objid      beginn       ade    gf   bsg lkz   ars   ags   sdv_ars gen   bez  
#>    <chr>      <date>     <int> <int> <int> <chr> <chr> <chr> <chr>   <chr> <chr>
#>  1 DEBKGVG20… 2025-01-03     4     4     1 NW    05111 05111 051110… Düss… Krei…
#>  2 DEBKGVG20… 2025-01-03     4     4     1 NW    05112 05112 051120… Duis… Krei…
#>  3 DEBKGVG20… 2025-01-03     4     4     1 NW    05113 05113 051130… Essen Krei…
#>  4 DEBKGVG20… 2025-01-03     4     4     1 NW    05114 05114 051140… Kref… Krei…
#>  5 DEBKGVG20… 2020-03-09     4     4     1 NW    05116 05116 051160… Mönc… Krei…
#>  6 DEBKGVG20… 2025-01-03     4     4     1 NW    05117 05117 051170… Mülh… Krei…
#>  7 DEBKGVG20… 2025-01-03     4     4     1 NW    05119 05119 051190… Ober… Krei…
#>  8 DEBKGVG20… 2025-01-03     4     4     1 NW    05120 05120 051200… Rems… Krei…
#>  9 DEBKGVG20… 2020-11-17     4     4     1 NW    05122 05122 051220… Soli… Krei…
#> 10 DEBKGVG20… 2025-04-11     4     4     1 NW    05124 05124 051240… Wupp… Krei…
#> # ℹ 43 more rows
#> # ℹ 16 more variables: ibz <int>, bem <chr>, nbd <chr>, sn_l <chr>, sn_r <chr>,
#> #   sn_k <chr>, sn_v1 <chr>, sn_v2 <chr>, sn_g <chr>, fk_s3 <chr>, nuts <chr>,
#> #   ars_0 <chr>, ags_0 <chr>, wsk <date>, dlm_id <chr>,
#> #   geometry <MULTIPOLYGON [m]>
…
# To query population and area, the key date must be December 31
bkg_admin(ewz > 500000, key_date = "1231") # districts over 500k people
#> Simple feature collection with 21 features and 27 fields
#> Geometry type: MULTIPOLYGON
#> Dimension:     XY
#> Bounding box:  xmin: 4037375 ymin: 2773147 xmax: 4598913 ymax: 3429696
#> Projected CRS: ETRS89-extended / LAEA Europe
#> # A tibble: 21 × 28
#>    objid      beginn       ade    gf   bsg ars   ags   sdv_ars gen   bez     ibz
#>    <chr>      <date>     <int> <int> <int> <chr> <chr> <chr>   <chr> <chr> <int>
#>  1 DEBKGVG20… 2023-10-03     4     4     1 02000 02000 020000… Hamb… Krei…    40
#>  2 DEBKGVG20… 2023-10-03     4     4     1 03241 03241 032410… Regi… Land…    45
#>  3 DEBKGVG20… 2023-10-03     4     4     1 04011 04011 040110… Brem… Krei…    40
#>  4 DEBKGVG20… 2023-10-03     4     4     1 05111 05111 051110… Düss… Krei…    40
#>  5 DEBKGVG20… 2022-12-19     4     4     1 05112 05112 051120… Duis… Krei…    40
#>  6 DEBKGVG20… 2022-12-19     4     4     1 05113 05113 051130… Essen Krei…    40
#>  7 DEBKGVG20… 2022-12-19     4     4     1 05315 05315 053150… Köln  Krei…    40
#>  8 DEBKGVG20… 2021-09-12     4     4     1 05334 05334 053340… Städ… Kreis    46
#>  9 DEBKGVG20… 2023-10-03     4     4     1 05382 05382 053820… Rhei… Kreis    42
#> 10 DEBKGVG20… 2023-10-03     4     4     1 05562 05562 055620… Reck… Kreis    42
#> # ℹ 11 more rows
#> # ℹ 17 more variables: bem <chr>, nbd <chr>, sn_l <chr>, sn_r <chr>,
#> #   sn_k <chr>, sn_v1 <chr>, sn_v2 <chr>, sn_g <chr>, fk_s3 <chr>, nuts <chr>,
#> #   ars_0 <chr>, ags_0 <chr>, wsk <date>, ewz <int>, kfl <dbl>, dlm_id <chr>,
#> #   geometry <MULTIPOLYGON [m]>
bkg_admin(kfl <= 100, key_date = "1231") # districts with low land register area
#> Simple feature collection with 74 features and 27 fields
#> Geometry type: MULTIPOLYGON
#> Dimension:     XY
#> Bounding box:  xmin: 4097402 ymin: 2719179 xmax: 4603283 ymax: 3531335
#> Projected CRS: ETRS89-extended / LAEA Europe
#> # A tibble: 74 × 28
#>    objid      beginn       ade    gf   bsg ars   ags   sdv_ars gen   bez     ibz
#>    <chr>      <date>     <int> <int> <int> <chr> <chr> <chr>   <chr> <chr> <int>
#>  1 DEBKGVG20… 2022-12-19     4     4     1 01001 01001 010010… Flen… Krei…    40
#>  2 DEBKGVG20… 2022-12-19     4     4     1 01004 01004 010040… Neum… Krei…    40
#>  3 DEBKGVG20… 2022-12-19     4     4     1 03401 03401 034010… Delm… Krei…    40
#>  4 DEBKGVG20… 2022-12-19     4     4     1 05117 05117 051170… Mülh… Krei…    40
#>  5 DEBKGVG20… 2022-12-19     4     4     1 05119 05119 051190… Ober… Krei…    40
#>  6 DEBKGVG20… 2019-06-12     4     4     1 05120 05120 051200… Rems… Krei…    40
#>  7 DEBKGVG20… 2020-11-17     4     4     1 05122 05122 051220… Soli… Krei…    40
#>  8 DEBKGVG20… 2021-11-16     4     4     1 05316 05316 053160… Leve… Krei…    40
#>  9 DEBKGVG20… 2022-12-19     4     4     1 05916 05916 059160… Herne Krei…    40
#> 10 DEBKGVG20… 2022-12-19     4     4     1 06413 06413 064130… Offe… Krei…    40
#> # ℹ 64 more rows
#> # ℹ 17 more variables: bem <chr>, nbd <chr>, sn_l <chr>, sn_r <chr>,
#> #   sn_k <chr>, sn_v1 <chr>, sn_v2 <chr>, sn_g <chr>, fk_s3 <chr>, nuts <chr>,
#> #   ars_0 <chr>, ags_0 <chr>, wsk <date>, ewz <int>, kfl <dbl>, dlm_id <chr>,
#> #   geometry <MULTIPOLYGON [m]>
…
# \donttest{
# Download high-resolution data (takes a long time!)
bkg_admin_highres(level = "lan")
#> Simple feature collection with 26 features and 25 fields
#> Geometry type: MULTIPOLYGON
#> Dimension:     XY
#> Bounding box:  xmin: 280375 ymin: 5235855 xmax: 921298 ymax: 6106245
#> Projected CRS: ETRS89 / UTM zone 32N
#> # A tibble: 26 × 26
#>    OBJID   BEGINN                ADE    GF   BSG LKZ   ARS   AGS   SDV_ARS GEN  
#>    <chr>   <dttm>              <int> <int> <int> <chr> <chr> <chr> <chr>   <chr>
#>  1 DEBKGV… 2025-02-02 00:00:00     2     9     1 SH    01    01    010020… Schl…
#>  2 DEBKGV… 2025-02-02 00:00:00     2     9     1 HH    02    02    020000… Hamb…
#>  3 DEBKGV… 2025-02-02 00:00:00     2     9     1 NI    03    03    032410… Nied…
#>  4 DEBKGV… 2025-02-02 00:00:00     2     9     1 HB    04    04    040110… Brem…
#>  5 DEBKGV… 2025-02-02 00:00:00     2     9     1 NW    05    05    051110… Nord…
#>  6 DEBKGV… 2025-02-02 00:00:00     2     9     1 HE    06    06    064140… Hess…
#>  7 DEBKGV… 2025-02-02 00:00:00     2     9     1 RP    07    07    073150… Rhei…
#>  8 DEBKGV… 2025-02-02 00:00:00     2     9     1 BW    08    08    081110… Bade…
#>  9 DEBKGV… 2025-02-02 00:00:00     2     9     1 BY    09    09    091620… Baye…
#> 10 DEBKGV… 2025-02-02 00:00:00     2     9     1 SL    10    10    100410… Saar…
#> # ℹ 16 more rows
#> # ℹ 16 more variables: BEZ <chr>, IBZ <int>, BEM <chr>, NBD <chr>, SN_L <chr>,
#> #   SN_R <chr>, SN_K <chr>, SN_V1 <chr>, SN_V2 <chr>, SN_G <chr>, FK_S3 <chr>,
#> #   NUTS <chr>, ARS_0 <chr>, AGS_0 <chr>, WSK <dttm>, geom <MULTIPOLYGON [m]>
…
