Administrative areas — bkg_admin • ffm
…
bkg_ror, bkg_grid, bkg_kfz,
bkg_authorities for non-administrative regions

Datasets: admin_data, nuts_data

    Examples

# You can use R-like operators to query the WFS
bkg_admin(ags %LIKE% "05%") # districts in NRW
#> Simple feature collection with 53 features and 25 fields
#> Geometry type: MULTIPOLYGON
#> Dimension:     XY
#> Bounding box:  xmin: 4031313 ymin: 3029642 xmax: 4283898 ymax: 3269981
#> Projected CRS: ETRS89-extended / LAEA Europe
#> # A tibble: 53 × 26
#>    objid      beginn       ade    gf   bsg ars   ags   sdv_ars gen   bez     ibz
#>    <chr>      <date>     <int> <int> <int> <chr> <chr> <chr>   <chr> <chr> <int>
#>  1 DEBKGVG20… 2024-04-03     4     4     1 05111 05111 051110… Düss… Krei…    40
#>  2 DEBKGVG20… 2024-04-03     4     4     1 05112 05112 051120… Duis… Krei…    40
#>  3 DEBKGVG20… 2024-04-03     4     4     1 05113 05113 051130… Essen Krei…    40
#>  4 DEBKGVG20… 2024-04-03     4     4     1 05114 05114 051140… Kref… Krei…    40
#>  5 DEBKGVG20… 2020-03-09     4     4     1 05116 05116 051160… Mönc… Krei…    40
#>  6 DEBKGVG20… 2024-04-03     4     4     1 05117 05117 051170… Mülh… Krei…    40
#>  7 DEBKGVG20… 2022-12-19     4     4     1 05119 05119 051190… Ober… Krei…    40
#>  8 DEBKGVG20… 2024-04-03     4     4     1 05120 05120 051200… Rems… Krei…    40
#>  9 DEBKGVG20… 2020-11-17     4     4     1 05122 05122 051220… Soli… Krei…    40
#> 10 DEBKGVG20… 2024-04-03     4     4     1 05124 05124 051240… Wupp… Krei…    40
#> # ℹ 43 more rows
#> # ℹ 15 more variables: bem <chr>, nbd <chr>, sn_l <chr>, sn_r <chr>,
#> #   sn_k <chr>, sn_v1 <chr>, sn_v2 <chr>, sn_g <chr>, fk_s3 <chr>, nuts <chr>,
#> #   ars_0 <chr>, ags_0 <chr>, wsk <date>, dlm_id <chr>,
#> #   geometry <MULTIPOLYGON [m]>
bkg_admin(sn_l == "05") # does the same thing
#> Simple feature collection with 53 features and 25 fields
#> Geometry type: MULTIPOLYGON
#> Dimension:     XY
#> Bounding box:  xmin: 4031313 ymin: 3029642 xmax: 4283898 ymax: 3269981
#> Projected CRS: ETRS89-extended / LAEA Europe
#> # A tibble: 53 × 26
#>    objid      beginn       ade    gf   bsg ars   ags   sdv_ars gen   bez     ibz
#>    <chr>      <date>     <int> <int> <int> <chr> <chr> <chr>   <chr> <chr> <int>
#>  1 DEBKGVG20… 2024-04-03     4     4     1 05111 05111 051110… Düss… Krei…    40
#>  2 DEBKGVG20… 2024-04-03     4     4     1 05112 05112 051120… Duis… Krei…    40
#>  3 DEBKGVG20… 2024-04-03     4     4     1 05113 05113 051130… Essen Krei…    40
#>  4 DEBKGVG20… 2024-04-03     4     4     1 05114 05114 051140… Kref… Krei…    40
#>  5 DEBKGVG20… 2020-03-09     4     4     1 05116 05116 051160… Mönc… Krei…    40
#>  6 DEBKGVG20… 2024-04-03     4     4     1 05117 05117 051170… Mülh… Krei…    40
#>  7 DEBKGVG20… 2022-12-19     4     4     1 05119 05119 051190… Ober… Krei…    40
#>  8 DEBKGVG20… 2024-04-03     4     4     1 05120 05120 051200… Rems… Krei…    40
#>  9 DEBKGVG20… 2020-11-17     4     4     1 05122 05122 051220… Soli… Krei…    40
#> 10 DEBKGVG20… 2024-04-03     4     4     1 05124 05124 051240… Wupp… Krei…    40
#> # ℹ 43 more rows
#> # ℹ 15 more variables: bem <chr>, nbd <chr>, sn_l <chr>, sn_r <chr>,
#> #   sn_k <chr>, sn_v1 <chr>, sn_v2 <chr>, sn_g <chr>, fk_s3 <chr>, nuts <chr>,
#> #   ars_0 <chr>, ags_0 <chr>, wsk <date>, dlm_id <chr>,
#> #   geometry <MULTIPOLYGON [m]>
…
# To query population and area, the key date must be December 31
bkg_admin(ewz > 500000, key_date = "1231") # districts over 500k people
#> Simple feature collection with 21 features and 27 fields
#> Geometry type: MULTIPOLYGON
#> Dimension:     XY
#> Bounding box:  xmin: 4037375 ymin: 2773147 xmax: 4598913 ymax: 3429696
#> Projected CRS: ETRS89-extended / LAEA Europe
#> # A tibble: 21 × 28
#>    objid      beginn       ade    gf   bsg ars   ags   sdv_ars gen   bez     ibz
#>    <chr>      <date>     <int> <int> <int> <chr> <chr> <chr>   <chr> <chr> <int>
#>  1 DEBKGVG20… 2023-10-03     4     4     1 02000 02000 020000… Hamb… Krei…    40
#>  2 DEBKGVG20… 2023-10-03     4     4     1 03241 03241 032410… Regi… Land…    45
#>  3 DEBKGVG20… 2023-10-03     4     4     1 04011 04011 040110… Brem… Krei…    40
#>  4 DEBKGVG20… 2023-10-03     4     4     1 05111 05111 051110… Düss… Krei…    40
#>  5 DEBKGVG20… 2022-12-19     4     4     1 05112 05112 051120… Duis… Krei…    40
#>  6 DEBKGVG20… 2022-12-19     4     4     1 05113 05113 051130… Essen Krei…    40
#>  7 DEBKGVG20… 2022-12-19     4     4     1 05315 05315 053150… Köln  Krei…    40
#>  8 DEBKGVG20… 2021-09-12     4     4     1 05334 05334 053340… Städ… Kreis    46
#>  9 DEBKGVG20… 2023-10-03     4     4     1 05382 05382 053820… Rhei… Kreis    42
#> 10 DEBKGVG20… 2023-10-03     4     4     1 05562 05562 055620… Reck… Kreis    42
#> # ℹ 11 more rows
#> # ℹ 17 more variables: bem <chr>, nbd <chr>, sn_l <chr>, sn_r <chr>,
#> #   sn_k <chr>, sn_v1 <chr>, sn_v2 <chr>, sn_g <chr>, fk_s3 <chr>, nuts <chr>,
#> #   ars_0 <chr>, ags_0 <chr>, wsk <date>, ewz <int>, kfl <dbl>, dlm_id <chr>,
#> #   geometry <MULTIPOLYGON [m]>
bkg_admin(kfl <= 100, key_date = "1231") # districts with low land register area
#> Simple feature collection with 74 features and 27 fields
#> Geometry type: MULTIPOLYGON
#> Dimension:     XY
#> Bounding box:  xmin: 4097402 ymin: 2719179 xmax: 4603283 ymax: 3531335
#> Projected CRS: ETRS89-extended / LAEA Europe
#> # A tibble: 74 × 28
#>    objid      beginn       ade    gf   bsg ars   ags   sdv_ars gen   bez     ibz
#>    <chr>      <date>     <int> <int> <int> <chr> <chr> <chr>   <chr> <chr> <int>
#>  1 DEBKGVG20… 2022-12-19     4     4     1 01001 01001 010010… Flen… Krei…    40
#>  2 DEBKGVG20… 2022-12-19     4     4     1 01004 01004 010040… Neum… Krei…    40
#>  3 DEBKGVG20… 2022-12-19     4     4     1 03401 03401 034010… Delm… Krei…    40
#>  4 DEBKGVG20… 2022-12-19     4     4     1 05117 05117 051170… Mülh… Krei…    40
#>  5 DEBKGVG20… 2022-12-19     4     4     1 05119 05119 051190… Ober… Krei…    40
#>  6 DEBKGVG20… 2019-06-12     4     4     1 05120 05120 051200… Rems… Krei…    40
#>  7 DEBKGVG20… 2020-11-17     4     4     1 05122 05122 051220… Soli… Krei…    40
#>  8 DEBKGVG20… 2021-11-16     4     4     1 05316 05316 053160… Leve… Krei…    40
#>  9 DEBKGVG20… 2022-12-19     4     4     1 05916 05916 059160… Herne Krei…    40
#> 10 DEBKGVG20… 2022-12-19     4     4     1 06413 06413 064130… Offe… Krei…    40
#> # ℹ 64 more rows
#> # ℹ 17 more variables: bem <chr>, nbd <chr>, sn_l <chr>, sn_r <chr>,
#> #   sn_k <chr>, sn_v1 <chr>, sn_v2 <chr>, sn_g <chr>, fk_s3 <chr>, nuts <chr>,
#> #   ars_0 <chr>, ags_0 <chr>, wsk <date>, ewz <int>, kfl <dbl>, dlm_id <chr>,
#> #   geometry <MULTIPOLYGON [m]>
…
