…
bkg_wfs(
  "vg5000_krs",
  endpoint = "vg5000_0101",
  filter = wfs_filter(poly = bw)
)
```

    #> Simple feature collection with 64 features and 25 fields
    #> Geometry type: MULTIPOLYGON
    #> Dimension:     XY
    #> Bounding box:  xmin: 4134332 ymin: 2684102 xmax: 4397824 ymax: 3014572
    #> Projected CRS: ETRS89-extended / LAEA Europe
    #> # A tibble: 64 × 26
    #>    id     objid beginn       ade    gf   bsg ars   ags   sdv_ars gen   bez     ibz bem   nbd   sn_l  sn_r  sn_k  sn_v1 sn_v2
    #>    <chr>  <chr> <date>     <int> <int> <int> <chr> <chr> <chr>   <chr> <chr> <int> <chr> <chr> <chr> <chr> <chr> <chr> <chr>
    #>  1 vg500… DEBK… 2019-10-03     4     9     1 06431 06431 064310… Berg… Land…    43 --    ja    06    4     31    00    00   
    #>  2 vg500… DEBK… 2019-10-03     4     9     1 06437 06437 064370… Oden… Land…    43 --    nein  06    4     37    00    00   
    #>  3 vg500… DEBK… 2019-10-03     4     9     1 07311 07311 073110… Fran… Krei…    40 --    ja    07    3     11    00    00   
    #>  4 vg500… DEBK… 2019-10-03     4     9     1 07314 07314 073140… Ludw… Krei…    40 --    ja    07    3     14    00    00   
    #>  5 vg500… DEBK… 2019-10-03     4     9     1 07318 07318 073180… Spey… Krei…    40 --    ja    07    3     18    00    00   
    #>  6 vg500… DEBK… 2019-10-03     4     9     1 07334 07334 073340… Germ… Land…    43 --    ja    07    3     34    00    00   
    #>  7 vg500… DEBK… 2019-10-03     4     9     1 07338 07338 073140… Rhei… Land…    43 --    nein  07    3     38    00    00   
    #>  8 vg500… DEBK… 2019-10-03     4     9     1 08111 08111 081110… Stut… Stad…    41 --    ja    08    1     11    00    00   
    #>  9 vg500… DEBK… 2019-10-03     4     9     1 08115 08115 081150… Böbl… Land…    43 --    ja    08    1     15    00    00   
    #> 10 vg500… DEBK… 2019-10-03     4     9     1 08116 08116 081160… Essl… Land…    43 --    ja    08    1     16    00    00   
    #> # ℹ 54 more rows
    #> # ℹ 7 more variables: sn_g <chr>, fk_s3 <chr>, nuts <chr>, ars_0 <chr>, ags_0 <chr>, wsk <date>,
    #> #   geometry <MULTIPOLYGON [m]>
